4 3
1 1.010000e-001 -1.782500e-001 0.000000e+000
2 1.010000e-001 0.000000e+000 0.000000e+000
3 1.010000e-001 -1.188333e-001 0.000000e+000
4 1.010000e-001 -5.941667e-002 0.000000e+000
1 102 1 3 
2 102 3 4 
3 102 4 2 
