4 3
1 2.200000e-001 -3.332300e-001 0.000000e+000
2 2.200000e-001 -2.437500e-001 0.000000e+000
3 2.200000e-001 -3.034033e-001 0.000000e+000
4 2.200000e-001 -2.735767e-001 0.000000e+000
1 102 1 3 
2 102 3 4 
3 102 4 2 
