9 8
1 -5.551115e-018 7.000000e-002 0.000000e+000
2 1.500000e-001 7.000000e-002 0.000000e+000
3 1.875000e-002 7.000000e-002 0.000000e+000
4 3.750000e-002 7.000000e-002 0.000000e+000
5 5.625000e-002 7.000000e-002 0.000000e+000
6 7.500000e-002 7.000000e-002 0.000000e+000
7 9.375000e-002 7.000000e-002 0.000000e+000
8 1.125000e-001 7.000000e-002 0.000000e+000
9 1.312500e-001 7.000000e-002 0.000000e+000
1 102 1 3 
2 102 3 4 
3 102 4 5 
4 102 5 6 
5 102 6 7 
6 102 7 8 
7 102 8 9 
8 102 9 2 
